verilog/wave.vcd
$date
	Sat Apr 12 14:05:02 2025
$end
$version
	ModelSim Version 2020.4
$end
$timescale
	1ps
$end

$scope module tb_write_ctrl $end
$var reg 1 ! wclk $end
$var reg 1 " wrst $end
$var reg 1 # wen $end
$var reg 3 $ rptr_gray_sync [2:0] $end
$var wire 1 % waddr [2] $end
$var wire 1 & waddr [1] $end
$var wire 1 ' waddr [0] $end
$var wire 1 ( wptr_gray [2] $end
$var wire 1 ) wptr_gray [1] $end
$var wire 1 * wptr_gray [0] $end
$var wire 1 + wfull $end

$scope module uut $end
$var wire 1 , wclk $end
$var wire 1 - wrst $end
$var wire 1 . wen $end
$var wire 1 / rptr_gray_sync [2] $end
$var wire 1 0 rptr_gray_sync [1] $end
$var wire 1 1 rptr_gray_sync [0] $end
$var wire 1 % waddr [2] $end
$var wire 1 & waddr [1] $end
$var wire 1 ' waddr [0] $end
$var wire 1 ( wptr_gray [2] $end
$var wire 1 ) wptr_gray [1] $end
$var wire 1 * wptr_gray [0] $end
$var wire 1 + wfull $end
$var reg 4 2 wptr_bin [3:0] $end
$var reg 4 3 wptr_gray_full [3:0] $end
$upscope $end
$upscope $end
$enddefinitions $end
#0
$dumpvars
0!
1"
0#
b0 $
b0 2
b0 3
0'
0&
0%
0*
0)
0(
0+
01
00
0/
0.
1-
0,
$end
#5000
1!
1,
#10000
0!
0,
#15000
1!
1,
#20000
0"
0!
0-
0,
#25000
1!
1,
#30000
1#
0!
1.
0,
#35000
1!
1,
b1 2
1'
#40000
0!
0,
#45000
1!
1,
b10 2
b1 3
1*
0'
1&
#50000
0!
0,
#55000
1!
1,
b11 2
b11 3
1)
1'
#60000
0!
0,
#65000
1!
1,
b100 2
b10 3
0*
0'
0&
1%
#70000
0!
0,
#75000
1!
1,
b101 2
b110 3
1(
1'
#80000
0!
0,
#85000
1!
1,
b110 2
b111 3
1*
0'
1&
#90000
0!
0,
#95000
1!
1,
b111 2
b101 3
0)
1'
#100000
0!
0,
#105000
1!
1,
b1000 2
b100 3
1+
0*
0'
0&
0%
#110000
0!
0,
#115000
1!
1,
b1100 3
0+
#120000
0!
0,
#125000
1!
1,
b1001 2
1'
#130000
b110 $
0!
10
1/
0,
#135000
1!
1,
b1010 2
b1101 3
1*
0'
1&
#140000
0!
0,
#145000
1!
1,
b1011 2
b1111 3
1)
1'
#150000
0!
0,
#155000
1!
1,
b1100 2
b1110 3
0*
0'
0&
1%
#160000
0!
0,
#165000
1!
1,
b1101 2
b1010 3
0(
1'
#170000
0#
0!
0.
0,
#175000
1!
1,
b1011 3
1*
